{
    "id": "c8f9056d-0eb1-40a6-8a64-8d3b3d47d29c",
    "schema": "https://metadata.datadrivendiscovery.org/schemas/v0/pipeline.json",
    "created": "2019-06-06T22:14:00.838362Z",
    "inputs": [
        {
            "name": "inputs"
        }
    ],
    "outputs": [
        {
            "data": "steps.0.produce",
            "name": "results"
        }
    ],
    "steps": [
        {
            "type": "PRIMITIVE",
            "primitive": {
                "id": "fde90b15-155a-3c2a-866c-4a19354cf0c7",
                "version": "0.1.0",
                "python_path": "d3m.primitives.vertex_nomination.spectral_graph_clustering.JHU",
                "name": "jhu.sgc",
                "digest": "e430417515eafcfb93ac57f6f11e4a60a5831ed14bf515a87e826c1e5df62a55"
            },
            "arguments": {
                "inputs": {
                    "type": "CONTAINER",
                    "data": "inputs.0"
                }
            },
            "outputs": [
                {
                    "id": "produce"
                }
            ]
        }
    ],
    "digest": "d6621bd5757981027b2b901d7619f47db7eeb264b7323cb6731db7733182ec63"
}