{
    "id": "aa7cca07-23aa-4d20-bd07-caa0707348fa",
    "schema": "https://metadata.datadrivendiscovery.org/schemas/v0/pipeline.json",
    "created": "2020-01-24T15:03:21.365583Z",
    "inputs": [
        {
            "name": "inputs"
        }
    ],
    "outputs": [
        {
            "data": "steps.3.produce",
            "name": "Predictions"
        }
    ],
    "steps": [
        {
            "type": "PRIMITIVE",
            "primitive": {
                "id": "cb192a83-63e2-4075-bab9-e6ba1a8365b6",
                "version": "0.1.0",
                "python_path": "d3m.primitives.data_transformation.load_graphs.JHU",
                "name": "Extract a list of Graphs from a Dataset",
                "digest": "4277aeaf2f0fd8eb455ac52aef0a7401554649fc8cb941599fc71b6334612166"
            },
            "arguments": {
                "inputs": {
                    "type": "CONTAINER",
                    "data": "inputs.0"
                }
            },
            "outputs": [
                {
                    "id": "produce"
                }
            ]
        },
        {
            "type": "PRIMITIVE",
            "primitive": {
                "id": "32fec24f-6861-4a4c-88f3-d4ec2bc1b486",
                "version": "0.1.0",
                "python_path": "d3m.primitives.data_preprocessing.largest_connected_component.JHU",
                "name": "jhu.lcc",
                "digest": "4a649b10c4d91715f7d66a769de8c360e2bebb446afcbad0a35199634c0a69f2"
            },
            "arguments": {
                "inputs": {
                    "type": "CONTAINER",
                    "data": "steps.0.produce"
                }
            },
            "outputs": [
                {
                    "id": "produce"
                }
            ]
        },
        {
            "type": "PRIMITIVE",
            "primitive": {
                "id": "8fa6178b-84f7-37d8-87e8-4d3a44c86569",
                "version": "0.1.0",
                "python_path": "d3m.primitives.data_transformation.laplacian_spectral_embedding.JHU",
                "name": "jhu.lse",
                "digest": "77fcd1786fa5870104193653f3ccd381c2bed706b497841f69a059441d95e30d"
            },
            "arguments": {
                "inputs": {
                    "type": "CONTAINER",
                    "data": "steps.1.produce"
                }
            },
            "outputs": [
                {
                    "id": "produce"
                }
            ],
            "hyperparams": {
                "max_dimension": {
                    "type": "VALUE",
                    "data": 5
                },
                "use_attributes": {
                    "type": "VALUE",
                    "data": true
                }
            }
        },
        {
            "type": "PRIMITIVE",
            "primitive": {
                "id": "c9d5da5d-0520-468e-92df-bd3a85bb4fac",
                "version": "0.1.0",
                "python_path": "d3m.primitives.classification.gaussian_classification.JHU",
                "name": "jhu.gclass",
                "digest": "db4d2d4e106ec0ba8aff38faf17686b09c951cfe8fc61d7e052c1ed96fc3142b"
            },
            "arguments": {
                "inputs": {
                    "type": "CONTAINER",
                    "data": "steps.2.produce"
                }
            },
            "outputs": [
                {
                    "id": "produce"
                }
            ]
        }
    ],
    "digest": "4a5ab9e8db3e7d8e84df3ff6230b3c02d8c6d862f909059b40f58d2da153f600"
}