{
    "id": "dsbox-featurizer-video-classification-lstm",
    "version": "1.5.3",
    "name": "DSBox Video Classification LSTM",
    "description": "video classification primitive that use lstm RNN network\n\nAttributes\n----------\nmetadata : PrimitiveMetadata\n    Primitive's metadata. Available as a class attribute.\nlogger : Logger\n    Primitive's logger. Available as a class attribute.\nhyperparams : Hyperparams\n    Hyperparams passed to the constructor.\nrandom_seed : int\n    Random seed passed to the constructor.\ndocker_containers : Dict[str, DockerContainer]\n    A dict mapping Docker image keys from primitive's metadata to (named) tuples containing\n    container's address under which the container is accessible by the primitive, and a\n    dict mapping exposed ports to ports on that address.\nvolumes : Dict[str, str]\n    A dict mapping volume keys from primitive's metadata to file and directory paths\n    where downloaded and extracted files are available to the primitive.\ntemporary_directory : str\n    An absolute path to a temporary directory a primitive can use to store any files\n    for the duration of the current pipeline run phase. Directory is automatically\n    cleaned up after the current pipeline run phase finishes.",
    "python_path": "d3m.primitives.classification.lstm.DSBOX",
    "primitive_family": "CLASSIFICATION",
    "algorithm_types": [
        "DEEP_NEURAL_NETWORK"
    ],
    "keywords": [
        "image",
        "featurization",
        "lstm"
    ],
    "source": {
        "name": "ISI",
        "contact": "mailto:kyao@isi.edu",
        "uris": [
            "https://github.com/usc-isi-i2/dsbox-primitives"
        ]
    },
    "installation": [
        {
            "type": "PIP",
            "package_uri": "git+https://github.com/usc-isi-i2/dsbox-primitives@1603edeb418fb67a310746717e9c96b7e6aac29b#egg=dsbox-primitives"
        }
    ],
    "precondition": [],
    "hyperparms_to_tune": [],
    "schema": "https://metadata.datadrivendiscovery.org/schemas/v0/primitive.json",
    "original_python_path": "dsbox.datapreprocessing.featurizer.image.video_classification.LSTM",
    "primitive_code": {
        "class_type_arguments": {
            "Inputs": "d3m.container.pandas.DataFrame",
            "Outputs": "d3m.container.pandas.DataFrame",
            "Params": "dsbox.datapreprocessing.featurizer.image.video_classification.Params",
            "Hyperparams": "dsbox.datapreprocessing.featurizer.image.video_classification.LSTMHyperparams"
        },
        "interfaces_version": "2020.1.9",
        "interfaces": [
            "supervised_learning.SupervisedLearnerPrimitiveBase",
            "base.PrimitiveBase"
        ],
        "hyperparams": {
            "LSTM_units": {
                "type": "d3m.metadata.hyperparams.UniformInt",
                "default": 2048,
                "structural_type": "int",
                "semantic_types": [
                    "https://metadata.datadrivendiscovery.org/types/ControlParameter"
                ],
                "description": "Positive integer, dimensionality of the output space of LSTM model",
                "lower": 1,
                "upper": 2147483648,
                "lower_inclusive": true,
                "upper_inclusive": false
            },
            "verbose": {
                "type": "d3m.metadata.hyperparams.UniformInt",
                "default": 0,
                "structural_type": "int",
                "semantic_types": [
                    "https://metadata.datadrivendiscovery.org/types/ControlParameter"
                ],
                "description": "Verbosity mode. 0 = silent, 1 = progress bar, 2 = one line per epoch.",
                "lower": 0,
                "upper": 3,
                "lower_inclusive": true,
                "upper_inclusive": false
            },
            "batch_size": {
                "type": "d3m.metadata.hyperparams.UniformInt",
                "default": 32,
                "structural_type": "int",
                "semantic_types": [
                    "https://metadata.datadrivendiscovery.org/types/ControlParameter"
                ],
                "description": "The batch size for RNN training",
                "lower": 1,
                "upper": 10000,
                "lower_inclusive": true,
                "upper_inclusive": false
            },
            "epochs": {
                "type": "d3m.metadata.hyperparams.UniformInt",
                "default": 1000,
                "structural_type": "int",
                "semantic_types": [
                    "http://schema.org/Boolean",
                    "https://metadata.datadrivendiscovery.org/types/ControlParameter"
                ],
                "description": "epochs to do on fit process",
                "lower": 1,
                "upper": 9223372036854775807,
                "lower_inclusive": true,
                "upper_inclusive": false
            },
            "shuffle": {
                "type": "d3m.metadata.hyperparams.Hyperparameter",
                "default": true,
                "structural_type": "bool",
                "semantic_types": [
                    "https://metadata.datadrivendiscovery.org/types/ControlParameter"
                ],
                "description": "Shuffle minibatches in each epoch of training (fit)."
            },
            "loss_threshold": {
                "type": "d3m.metadata.hyperparams.Hyperparameter",
                "default": 1e-05,
                "structural_type": "float",
                "semantic_types": [
                    "https://metadata.datadrivendiscovery.org/types/ControlParameter"
                ],
                "description": "Threshold of loss value to early stop training (fit)."
            },
            "weight_decay": {
                "type": "d3m.metadata.hyperparams.Hyperparameter",
                "default": 1e-06,
                "structural_type": "float",
                "semantic_types": [
                    "https://metadata.datadrivendiscovery.org/types/ControlParameter"
                ],
                "description": "Weight decay (L2 regularization) used during training (fit)."
            },
            "learning_rate": {
                "type": "d3m.metadata.hyperparams.Hyperparameter",
                "default": 1e-05,
                "structural_type": "float",
                "semantic_types": [
                    "https://metadata.datadrivendiscovery.org/types/ControlParameter"
                ],
                "description": "Learning rate used during training (fit)."
            },
            "dropout_rate": {
                "type": "d3m.metadata.hyperparams.Hyperparameter",
                "default": 0.5,
                "structural_type": "float",
                "semantic_types": [
                    "https://metadata.datadrivendiscovery.org/types/ControlParameter"
                ],
                "description": "Learning rate used during training (fit)."
            },
            "validate_data_percent": {
                "type": "d3m.metadata.hyperparams.Hyperparameter",
                "default": 0.2,
                "structural_type": "float",
                "semantic_types": [
                    "https://metadata.datadrivendiscovery.org/types/ControlParameter"
                ],
                "description": "The perncentage of the data used for validation purpose during train(fit)."
            },
            "optimizer_type": {
                "type": "d3m.metadata.hyperparams.Enumeration",
                "default": "adam",
                "structural_type": "str",
                "semantic_types": [
                    "https://metadata.datadrivendiscovery.org/types/ControlParameter"
                ],
                "description": "Type of optimizer used during training (fit).",
                "values": [
                    "adam",
                    "sgd"
                ]
            },
            "momentum": {
                "type": "d3m.metadata.hyperparams.Hyperparameter",
                "default": 0.9,
                "structural_type": "float",
                "semantic_types": [
                    "https://metadata.datadrivendiscovery.org/types/ControlParameter"
                ],
                "description": "Momentum used during training (fit), only for optimizer_type sgd."
            }
        },
        "arguments": {
            "hyperparams": {
                "type": "dsbox.datapreprocessing.featurizer.image.video_classification.LSTMHyperparams",
                "kind": "RUNTIME"
            },
            "volumes": {
                "type": "typing.Union[NoneType, typing.Dict[str, str]]",
                "kind": "RUNTIME",
                "default": null
            },
            "timeout": {
                "type": "typing.Union[NoneType, float]",
                "kind": "RUNTIME",
                "default": null
            },
            "iterations": {
                "type": "typing.Union[NoneType, int]",
                "kind": "RUNTIME",
                "default": null
            },
            "produce_methods": {
                "type": "typing.Sequence[str]",
                "kind": "RUNTIME"
            },
            "inputs": {
                "type": "d3m.container.pandas.DataFrame",
                "kind": "PIPELINE"
            },
            "outputs": {
                "type": "d3m.container.pandas.DataFrame",
                "kind": "PIPELINE"
            },
            "params": {
                "type": "dsbox.datapreprocessing.featurizer.image.video_classification.Params",
                "kind": "RUNTIME"
            }
        },
        "class_methods": {},
        "instance_methods": {
            "__init__": {
                "kind": "OTHER",
                "arguments": [
                    "hyperparams",
                    "volumes"
                ],
                "returns": "NoneType"
            },
            "fit": {
                "kind": "OTHER",
                "arguments": [
                    "timeout",
                    "iterations"
                ],
                "returns": "d3m.primitive_interfaces.base.CallResult[NoneType]",
                "description": "If using the pre-training model, here we will use this model to detect what inside the bounding boxes from training dataset\nThen, count the number of the objects deteced in each box, we will treat only the objects amount number larger than the threshold\nto be the target that we need to detect in the test part.\n\nParameters\n----------\ntimeout : float\n    A maximum time this primitive should be fitting during this method call, in seconds.\niterations : int\n    How many of internal iterations should the primitive do.\n\nReturns\n-------\nCallResult[None]\n    A ``CallResult`` with ``None`` value."
            },
            "fit_multi_produce": {
                "kind": "OTHER",
                "arguments": [
                    "produce_methods",
                    "inputs",
                    "outputs",
                    "timeout",
                    "iterations"
                ],
                "returns": "d3m.primitive_interfaces.base.MultiCallResult",
                "description": "A method calling ``fit`` and after that multiple produce methods at once.\n\nThis method allows primitive author to implement an optimized version of both fitting\nand producing a primitive on same data.\n\nIf any additional method arguments are added to primitive's ``set_training_data`` method\nor produce method(s), or removed from them, they have to be added to or removed from this\nmethod as well. This method should accept an union of all arguments accepted by primitive's\n``set_training_data`` method and produce method(s) and then use them accordingly when\ncomputing results.\n\nThe default implementation of this method just calls first ``set_training_data`` method,\n``fit`` method, and all produce methods listed in ``produce_methods`` in order and is\npotentially inefficient.\n\nParameters\n----------\nproduce_methods : Sequence[str]\n    A list of names of produce methods to call.\ninputs : Inputs\n    The inputs given to ``set_training_data`` and all produce methods.\noutputs : Outputs\n    The outputs given to ``set_training_data``.\ntimeout : float\n    A maximum time this primitive should take to both fit the primitive and produce outputs\n    for all produce methods listed in ``produce_methods`` argument, in seconds.\niterations : int\n    How many of internal iterations should the primitive do for both fitting and producing\n    outputs of all produce methods.\n\nReturns\n-------\nMultiCallResult\n    A dict of values for each produce method wrapped inside ``MultiCallResult``."
            },
            "get_params": {
                "kind": "OTHER",
                "arguments": [],
                "returns": "dsbox.datapreprocessing.featurizer.image.video_classification.Params",
                "description": "Returns parameters of this primitive.\n\nParameters are all parameters of the primitive which can potentially change during a life-time of\na primitive. Parameters which cannot are passed through constructor.\n\nParameters should include all data which is necessary to create a new instance of this primitive\nbehaving exactly the same as this instance, when the new instance is created by passing the same\nparameters to the class constructor and calling ``set_params``.\n\nNo other arguments to the method are allowed (except for private arguments).\n\nReturns\n-------\nParams\n    An instance of parameters."
            },
            "multi_produce": {
                "kind": "OTHER",
                "arguments": [
                    "produce_methods",
                    "inputs",
                    "timeout",
                    "iterations"
                ],
                "returns": "d3m.primitive_interfaces.base.MultiCallResult",
                "description": "A method calling multiple produce methods at once.\n\nWhen a primitive has multiple produce methods it is common that they might compute the\nsame internal results for same inputs but return different representations of those results.\nIf caller is interested in multiple of those representations, calling multiple produce\nmethods might lead to recomputing same internal results multiple times. To address this,\nthis method allows primitive author to implement an optimized version which computes\ninternal results only once for multiple calls of produce methods, but return those different\nrepresentations.\n\nIf any additional method arguments are added to primitive's produce method(s), they have\nto be added to this method as well. This method should accept an union of all arguments\naccepted by primitive's produce method(s) and then use them accordingly when computing\nresults.\n\nThe default implementation of this method just calls all produce methods listed in\n``produce_methods`` in order and is potentially inefficient.\n\nIf primitive should have been fitted before calling this method, but it has not been,\nprimitive should raise a ``PrimitiveNotFittedError`` exception.\n\nParameters\n----------\nproduce_methods : Sequence[str]\n    A list of names of produce methods to call.\ninputs : Inputs\n    The inputs given to all produce methods.\ntimeout : float\n    A maximum time this primitive should take to produce outputs for all produce methods\n    listed in ``produce_methods`` argument, in seconds.\niterations : int\n    How many of internal iterations should the primitive do.\n\nReturns\n-------\nMultiCallResult\n    A dict of values for each produce method wrapped inside ``MultiCallResult``."
            },
            "produce": {
                "kind": "PRODUCE",
                "arguments": [
                    "inputs",
                    "timeout",
                    "iterations"
                ],
                "returns": "d3m.primitive_interfaces.base.CallResult[d3m.container.pandas.DataFrame]",
                "singleton": false,
                "inputs_across_samples": [],
                "description": "Use YOLO to detect the objects in the input dataframe\nThe function will read the images if the input is a dataframe with image names\nThe detected output depends on the input training dataset's ojbects\n\nParameters\n----------\ninputs : Inputs\n    The inputs of shape [num_inputs, ...].\ntimeout : float\n    A maximum time this primitive should take to produce outputs during this method call, in seconds.\niterations : int\n    How many of internal iterations should the primitive do.\n\nReturns\n-------\nCallResult[Outputs]\n    The outputs of shape [num_inputs, ...] wrapped inside ``CallResult``."
            },
            "set_params": {
                "kind": "OTHER",
                "arguments": [
                    "params"
                ],
                "returns": "NoneType",
                "description": "Sets parameters of this primitive.\n\nParameters are all parameters of the primitive which can potentially change during a life-time of\na primitive. Parameters which cannot are passed through constructor.\n\nNo other arguments to the method are allowed (except for private arguments).\n\nParameters\n----------\nparams : Params\n    An instance of parameters."
            },
            "set_training_data": {
                "kind": "OTHER",
                "arguments": [
                    "inputs",
                    "outputs"
                ],
                "returns": "NoneType",
                "description": "Sets current training data of this primitive.\n\nThis marks training data as changed even if new training data is the same as\nprevious training data.\n\nStandard sublasses in this package do not adhere to the Liskov substitution principle when\ninheriting this method because they do not necessary accept all arguments found in the base\nclass. This means that one has to inspect which arguments are accepted at runtime, or in\nother words, one has to inspect which exactly subclass a primitive implements, if\nyou are accepting a wider range of primitives. This relaxation is allowed only for\nstandard subclasses found in this package. Primitives themselves should not break\nthe Liskov substitution principle but should inherit from a suitable base class.\n\nParameters\n----------\ninputs : Inputs\n    The inputs.\noutputs : Outputs\n    The outputs."
            }
        },
        "class_attributes": {
            "logger": "logging.Logger",
            "metadata": "d3m.metadata.base.PrimitiveMetadata"
        },
        "instance_attributes": {
            "hyperparams": "d3m.metadata.hyperparams.Hyperparams",
            "random_seed": "int",
            "docker_containers": "typing.Dict[str, d3m.primitive_interfaces.base.DockerContainer]",
            "volumes": "typing.Dict[str, str]",
            "temporary_directory": "typing.Union[NoneType, str]"
        },
        "params": {
            "target_column_name": "str",
            "class_name_to_number": "typing.Dict[str, int]",
            "keras_model": "typing.Dict",
            "feature_shape": "typing.List[int]",
            "input_feature_column_name": "str"
        }
    },
    "structural_type": "dsbox.datapreprocessing.featurizer.image.video_classification.LSTM",
    "digest": "e82a3431b47995853dba1b928d3e8af17bc5d89278965306834481a95212c351"
}
