{
    "id": "125bdd51-31bd-45ec-a34b-debfc5ec5efc",
    "schema": "https://metadata.datadrivendiscovery.org/schemas/v0/pipeline.json",
    "created": "2019-06-20T18:24:32.231085Z",
    "inputs": [
        {
            "name": "inputs"
        }
    ],
    "outputs": [
        {
            "data": "steps.5.produce",
            "name": "output"
        }
    ],
    "steps": [
        {
            "type": "PRIMITIVE",
            "primitive": {
                "id": "f2a0cf71-0f61-41a7-a0ad-b907083ae56c",
                "version": "0.1.0",
                "python_path": "d3m.primitives.data_preprocessing.audio_loader.DistilAudioDatasetLoader",
                "name": "Load audio collection from dataset into a single dataframe",
                "digest": "a73c2f0f7684d34312db771c7ecb08fd1b71b72043f5f79166cde9ae26d391d0"
            },
            "arguments": {
                "inputs": {
                    "type": "CONTAINER",
                    "data": "inputs.0"
                }
            },
            "outputs": [
                {
                    "id": "produce"
                },
                {
                    "id": "produce_collection"
                }
            ]
        },
        {
            "type": "PRIMITIVE",
            "primitive": {
                "id": "d510cb7a-1782-4f51-b44c-58f0236e47c7",
                "version": "0.5.0",
                "python_path": "d3m.primitives.data_transformation.column_parser.DataFrameCommon",
                "name": "Parses strings into their types",
                "digest": "3feb9bcf7350e1975b9709d1565a27859d2cf354b095b29f174b158462224f24"
            },
            "arguments": {
                "inputs": {
                    "type": "CONTAINER",
                    "data": "steps.0.produce"
                }
            },
            "outputs": [
                {
                    "id": "produce"
                }
            ],
            "hyperparams": {
                "parse_semantic_types": {
                    "type": "VALUE",
                    "data": [
                        "http://schema.org/Boolean",
                        "http://schema.org/Integer",
                        "http://schema.org/Float",
                        "https://metadata.datadrivendiscovery.org/types/FloatVector"
                    ]
                }
            }
        },
        {
            "type": "PRIMITIVE",
            "primitive": {
                "id": "4503a4c6-42f7-45a1-a1d4-ed69699cf5e1",
                "version": "0.3.0",
                "python_path": "d3m.primitives.data_transformation.extract_columns_by_semantic_types.DataFrameCommon",
                "name": "Extracts columns by semantic type",
                "digest": "8c9de5cd06f74ea3f80fa9f1e1f775a1d3eddff1621512e6ab72aaab8724b88d"
            },
            "arguments": {
                "inputs": {
                    "type": "CONTAINER",
                    "data": "steps.1.produce"
                }
            },
            "outputs": [
                {
                    "id": "produce"
                }
            ],
            "hyperparams": {
                "semantic_types": {
                    "type": "VALUE",
                    "data": [
                        "https://metadata.datadrivendiscovery.org/types/Target",
                        "https://metadata.datadrivendiscovery.org/types/TrueTarget"
                    ]
                }
            }
        },
        {
            "type": "PRIMITIVE",
            "primitive": {
                "id": "f2f149c8-a984-4f5b-8a9b-2f13ee0cf16d",
                "version": "0.1.0",
                "python_path": "d3m.primitives.feature_extraction.audio_transfer.DistilAudioTransfer",
                "name": "Audio Transfer",
                "digest": "c5cffc8c204bc808c667cddcc265dffcedb1d1893d80e1f7b693956d930b2f39"
            },
            "arguments": {
                "inputs": {
                    "type": "CONTAINER",
                    "data": "steps.0.produce_collection"
                }
            },
            "outputs": [
                {
                    "id": "produce"
                }
            ]
        },
        {
            "type": "PRIMITIVE",
            "primitive": {
                "id": "e0ad06ce-b484-46b0-a478-c567e1ea7e02",
                "version": "0.1.0",
                "python_path": "d3m.primitives.learner.random_forest.DistilEnsembleForest",
                "name": "EnsembleForest",
                "digest": "320510ba2afcacb5fa05be10c6b1ae40e2e11a60b37b75ac3d27b1143fbfe3cb"
            },
            "arguments": {
                "inputs": {
                    "type": "CONTAINER",
                    "data": "steps.3.produce"
                },
                "outputs": {
                    "type": "CONTAINER",
                    "data": "steps.2.produce"
                }
            },
            "outputs": [
                {
                    "id": "produce"
                }
            ],
            "hyperparams": {
                "metric": {
                    "type": "VALUE",
                    "data": "accuracy"
                }
            }
        },
        {
            "type": "PRIMITIVE",
            "primitive": {
                "id": "8d38b340-f83f-4877-baaa-162f8e551736",
                "version": "0.3.0",
                "python_path": "d3m.primitives.data_transformation.construct_predictions.DataFrameCommon",
                "name": "Construct pipeline predictions output",
                "digest": "dfbf9e3112dd7ab851fc85588741b66900ac25bd03f2e602327046f676036e28"
            },
            "arguments": {
                "inputs": {
                    "type": "CONTAINER",
                    "data": "steps.4.produce"
                },
                "reference": {
                    "type": "CONTAINER",
                    "data": "steps.1.produce"
                }
            },
            "outputs": [
                {
                    "id": "produce"
                }
            ]
        }
    ],
    "digest": "347e12f00ee716dc2e3d246a0e12a51fbd735c6efadec545717c4cdcc9f5175a"
}
